{
  "file_generated_by": "FlutterFire CLI",
  "purpose": "FirebaseAppID & ProjectID for this Firebase app in this directory",
  "GOOGLE_APP_ID": "1:343950503347:ios:e4f190b167bedb760fefc6",
  "FIREBASE_PROJECT_ID": "drone369fb",
  "GCM_SENDER_ID": "343950503347"
}